…
ll %>% print
# # A tibble: 273 × 7
#         id date       city          state            lat   lon zip
#      <int> <date>     <chr>         <chr>          <dbl> <dbl> <chr>
#  1 1549559 2019-11-15 Chicago       Illinois        41.9 -87.8 60644
#  2 1549561 2019-11-15 Pinellas Park Florida         27.8 -82.7 33781
#  3 1549601 2019-11-15 Clarkston     Georgia         33.8 -84.2 30021
#  4 1549654 2019-11-15 Philadelphia  Pennsylvania    40.0 -75.1 19149
#  5 1549664 2019-11-15 Houston       Texas           29.7 -95.3 <NA>
#  6 1549681 2019-11-15 Spring        Texas           30.1 -95.4 77386
#  7 1549735 2019-11-15 Charlotte     North Carolina  35.2 -80.8 28202
#  8 1549759 2019-11-15 Westborough   Massachusetts   42.3 -71.6 01581
#  9 1549803 2019-11-15 Lexington     Kentucky        38.1 -84.5 40505
# 10 1549877 2019-11-15 Independence  Missouri        39.1 -94.5 64052
# # … with 263 more rows
…
